{
  "results": [
    {
      "siren": "394026934",
      "nom_complet": "EXPERIS FRANCE (EXPERIS)",
      "nom_raison_sociale": "EXPERIS FRANCE",
      "sigle": null,
      "nombre_etablissements": 72,
      "nombre_etablissements_ouverts": 22,
      "siege": {
        "activite_principale": "62.03Z",
        "activite_principale_registre_metier": null,
        "annee_tranche_effectif_salarie": "2023",
        "adresse": "15 RUE CHRISTIAN PAUC 44300 NANTES",
        "caractere_employeur": "O",
        "cedex": null,
        "code_pays_etranger": null,
        "code_postal": "44300",
        "commune": "44109",
        "complement_adresse": null,
        "coordonnees": "47.283346,-1.512825",
        "date_creation": "2018-01-19",
        "date_debut_activite": "2024-10-29",
        "date_fermeture": null,
        "date_mise_a_jour": null,
        "date_mise_a_jour_insee": "2025-01-18T02:07:02",
        "departement": "44",
        "distribution_speciale": null,
        "epci": "244400404",
        "est_siege": true,
        "etat_administratif": "A",
        "geo_adresse": "15 Rue Christian Pauc 44300 Nantes",
        "geo_id": "44109_1901_00015",
        "indice_repetition": null,
        "latitude": "47.283346",
        "libelle_cedex": null,
        "libelle_commune": "NANTES",
        "libelle_commune_etranger": null,
        "libelle_pays_etranger": null,
        "libelle_voie": "CHRISTIAN PAUC",
        "liste_enseignes": null,
        "liste_finess": null,
        "liste_id_bio": null,
        "liste_idcc": [
          "1486"
        ],
        "liste_id_organisme_formation": null,
        "liste_rge": null,
        "liste_uai": null,
        "longitude": "-1.512825",
        "nom_commercial": "EXPERIS",
        "numero_voie": "15",
        "region": "52",
        "siret": "39402693400536",
        "statut_diffusion_etablissement": "O",
        "tranche_effectif_salarie": "32",
        "type_voie": "RUE"
      },
      "activite_principale": "62.01Z",
      "categorie_entreprise": "GE",
      "caractere_employeur": null,
      "annee_categorie_entreprise": "2023",
      "date_creation": "1994-02-14",
      "date_fermeture": null,
      "date_mise_a_jour": "2025-10-03T06:43:33",
      "date_mise_a_jour_insee": "2025-05-20T16:36:21",
      "date_mise_a_jour_rne": "2024-05-19T16:49:33",
      "dirigeants": [
        {
          "nom": "DERIGNY",
          "prenoms": "BENOÎT ETIENNE SACHA",
          "annee_de_naissance": "1966",
          "date_de_naissance": "1966-07",
          "qualite": "Président de SAS",
          "nationalite": "FRANÇAISE",
          "type_dirigeant": "personne physique"
        },
        {
          "siren": "572028041",
          "denomination": "DELOITTE & ASSOCIES",
          "qualite": "Commissaire aux comptes titulaire",
          "type_dirigeant": "personne morale"
        }
      ],
      "etat_administratif": "A",
      "nature_juridique": "5710",
      "section_activite_principale": "J",
      "tranche_effectif_salarie": "51",
      "annee_tranche_effectif_salarie": "2023",
      "statut_diffusion": "O",
      "matching_etablissements": [
        {
          "activite_principale": "62.03Z",
          "ancien_siege": false,
          "annee_tranche_effectif_salarie": "2023",
          "adresse": "14 RUE JACQUES MONOD 76130 MONT-SAINT-AIGNAN",
          "caractere_employeur": "O",
          "code_postal": "76130",
          "commune": "76451",
          "date_creation": "2019-09-30",
          "date_debut_activite": "2024-11-12",
          "date_fermeture": null,
          "epci": "200023414",
          "est_siege": false,
          "etat_administratif": "A",
          "geo_id": "76451_0633_00014",
          "latitude": "49.476847",
          "libelle_commune": "MONT-SAINT-AIGNAN",
          "liste_enseignes": null,
          "liste_finess": null,
          "liste_id_bio": null,
          "liste_idcc": [
            "1486"
          ],
          "liste_id_organisme_formation": null,
          "liste_rge": null,
          "liste_uai": null,
          "longitude": "1.096273",
          "nom_commercial": "EXPERIS",
          "region": "28",
          "siret": "39402693400577",
          "statut_diffusion_etablissement": "O",
          "tranche_effectif_salarie": "21"
        },
        {
          "activite_principale": "62.02A",
          "ancien_siege": false,
          "annee_tranche_effectif_salarie": "2023",
          "adresse": "LE VAISSEAU 120 BOULEVARD AMIRAL MOUCHEZ 76600 LE HAVRE",
          "caractere_employeur": "O",
          "code_postal": "76600",
          "commune": "76351",
          "date_creation": "2020-05-11",
          "date_debut_activite": "2024-10-30",
          "date_fermeture": null,
          "epci": "200084952",
          "est_siege": false,
          "etat_administratif": "A",
          "geo_id": "76351_0300_00120",
          "latitude": "49.487421",
          "libelle_commune": "LE HAVRE",
          "liste_enseignes": null,
          "liste_finess": null,
          "liste_id_bio": null,
          "liste_idcc": [
            "1486"
          ],
          "liste_id_organisme_formation": null,
          "liste_rge": null,
          "liste_uai": null,
          "longitude": "0.146091",
          "nom_commercial": "EXPERIS",
          "region": "28",
          "siret": "39402693400619",
          "statut_diffusion_etablissement": "O",
          "tranche_effectif_salarie": "12"
        },
        {
          "activite_principale": "62.02A",
          "ancien_siege": false,
          "annee_tranche_effectif_salarie": null,
          "adresse": "7 RUE A D SAKHAROV 76130 MONT-SAINT-AIGNAN",
          "caractere_employeur": "O",
          "code_postal": "76130",
          "commune": "76451",
          "date_creation": "2007-06-29",
          "date_debut_activite": "2019-09-30",
          "date_fermeture": "2019-09-30",
          "epci": "200023414",
          "est_siege": false,
          "etat_administratif": "F",
          "geo_id": "76451_0025_00007",
          "latitude": "49.475044",
          "libelle_commune": "MONT-SAINT-AIGNAN",
          "liste_enseignes": null,
          "liste_finess": null,
          "liste_id_bio": null,
          "liste_idcc": null,
          "liste_id_organisme_formation": null,
          "liste_rge": null,
          "liste_uai": null,
          "longitude": "1.091304",
          "nom_commercial": null,
          "region": "28",
          "siret": "39402693400254",
          "statut_diffusion_etablissement": "O",
          "tranche_effectif_salarie": "NN"
        },
        {
          "activite_principale": "62.02A",
          "ancien_siege": false,
          "annee_tranche_effectif_salarie": null,
          "adresse": "CENTRE HAVRAIS COMMERCE INTERNATIONAL QUAI GEORGE V 76600 LE HAVRE",
          "caractere_employeur": "O",
          "code_postal": "76600",
          "commune": "76351",
          "date_creation": "2007-06-29",
          "date_debut_activite": "2019-09-30",
          "date_fermeture": "2019-09-30",
          "epci": "200084952",
          "est_siege": false,
          "etat_administratif": "F",
          "geo_id": "76351_3475",
          "latitude": "49.490951",
          "libelle_commune": "LE HAVRE",
          "liste_enseignes": null,
          "liste_finess": null,
          "liste_id_bio": null,
          "liste_idcc": null,
          "liste_id_organisme_formation": null,
          "liste_rge": null,
          "liste_uai": null,
          "longitude": "0.113704",
          "nom_commercial": null,
          "region": "28",
          "siret": "39402693400262",
          "statut_diffusion_etablissement": "O",
          "tranche_effectif_salarie": "NN"
        },
        {
          "activite_principale": "62.02A",
          "ancien_siege": false,
          "annee_tranche_effectif_salarie": null,
          "adresse": "LA HUNE COWORKING 154 RUE VICTOR HUGO 76600 LE HAVRE",
          "caractere_employeur": "O",
          "code_postal": "76600",
          "commune": "76351",
          "date_creation": "2019-09-30",
          "date_debut_activite": "2020-05-11",
          "date_fermeture": "2020-05-11",
          "epci": "200084952",
          "est_siege": false,
          "etat_administratif": "F",
          "geo_id": "76351_7895_00154",
          "latitude": "49.491614",
          "libelle_commune": "LE HAVRE",
          "liste_enseignes": [
            "PROSERVIA"
          ],
          "liste_finess": null,
          "liste_id_bio": null,
          "liste_idcc": null,
          "liste_id_organisme_formation": null,
          "liste_rge": null,
          "liste_uai": null,
          "longitude": "0.109223",
          "nom_commercial": null,
          "region": "28",
          "siret": "39402693400585",
          "statut_diffusion_etablissement": "O",
          "tranche_effectif_salarie": "NN"
        }
      ],
      "finances": {
        "2023": {
          "ca": 243416919,
          "resultat_net": 4923731
        }
      },
      "complements": {
        "collectivite_territoriale": null,
        "convention_collective_renseignee": true,
        "liste_idcc": [
          "1486",
          "0054"
        ],
        "egapro_renseignee": true,
        "est_achats_responsables": false,
        "est_alim_confiance": false,
        "est_association": false,
        "est_bio": false,
        "est_entrepreneur_individuel": false,
        "est_entrepreneur_spectacle": false,
        "est_ess": false,
        "est_finess": false,
        "est_organisme_formation": false,
        "est_qualiopi": false,
        "liste_id_organisme_formation": null,
        "est_rge": false,
        "est_service_public": false,
        "est_l100_3": false,
        "est_siae": false,
        "est_societe_mission": false,
        "est_uai": false,
        "est_patrimoine_vivant": false,
        "bilan_ges_renseigne": true,
        "identifiant_association": null,
        "statut_entrepreneur_spectacle": null,
        "type_siae": null
      }
    }
  ],
  "total_results": 2015,
  "page": 1,
  "per_page": 1,
  "total_pages": 2015
}